…
### Example analysis

[FPL Mythbusting with fplr](https://ewen.io/2017/06/25/fpl-mythbusting-with-fplr/)

### Player data

Get data on all players in the current FPL season:

``` r
# load package
library(fplr)

fpl_get_players()
## # A tibble: 438 x 60
##       id photo   web_name  team_code status    code first_name second_name
##  * <int> <chr>   <chr>         <int> <chr>    <int> <chr>      <chr>      
##  1     1 11334.… Cech              3 Availa…  11334 Petr       Cech       
##  2     2 80201.… Leno              3 Availa…  80201 Bernd      Leno       
##  3     3 51507.… Koscielny         3 Injured  51507 Laurent    Koscielny  
##  4     4 98745.… Bellerín          3 Availa…  98745 Héctor     Bellerín   
##  5     5 38411.… Monreal           3 Availa…  38411 Nacho      Monreal    
##  6     6 156074… Holding           3 Availa… 156074 Rob        Holding    
##  7     7 69140.… Mustafi           3 Availa…  69140 Shkodran   Mustafi    
##  8     8 111457… Kolasinac         3 Availa… 111457 Sead       Kolasinac  
##  9     9 101184… Chambers          3 Availa… 101184 Calum      Chambers   
## 10    10 233963… Mavropan…         3 Availa… 233963 Konstanti… Mavropanos 
## # ... with 428 more rows, and 52 more variables: squad_number <int>,
## #   news <chr>, now_cost <dbl>, news_added <chr>,
## #   chance_of_playing_this_round <lgl>,
## #   chance_of_playing_next_round <int>, value_form <dbl>,
## #   value_season <dbl>, cost_change_start <dbl>, cost_change_event <dbl>,
## #   cost_change_start_fall <int>, cost_change_event_fall <int>,
## #   in_dreamteam <lgl>, dreamteam_count <int>, selected_by_percent <dbl>,
## #   form <dbl>, transfers_out <int>, transfers_in <int>,
## #   transfers_out_event <int>, transfers_in_event <int>, loans_in <int>,
…
