Tools for Working with Fantasy Premier League (FPL) Data in R • fplr
…
Usage

Refer to the quickstart guide to get started. Still, here are some very basic examples of the functionality and practical applications of fplr.

Get data

…on all players in the current FPL season.

library(fplr)

players <- fpl_get_player_all()

players
#> # A tibble: 529 x 53
#>    chance_of_playi… chance_of_playi…   code cost_change_eve…
#>               <int>            <int>  <int>            <dbl>
#>  1               NA               NA  69140             -0.1
#>  2                0                0  98745              0  
#>  3              100               75 111457              0  
#>  4               NA               NA 154043              0  
#>  5               NA               NA  39476              0  
#>  6               NA               NA  38411              0  
#>  7                0                0  51507              0  
#>  8                0                0 233963             -0.1
#>  9                0                0  80254              0  
#> 10                0                0 156074              0  
#> # … with 519 more rows, and 49 more variables:
#> #   cost_change_event_fall <int>, cost_change_start <dbl>,
#> #   cost_change_start_fall <int>, dreamteam_count <int>,
#> #   element_type <int>, ep_next <dbl>, ep_this <dbl>, event_points <int>,
#> #   first_name <chr>, form <dbl>, id <int>, in_dreamteam <lgl>,
#> #   news <chr>, news_added <chr>, now_cost <dbl>, photo <chr>,
#> #   points_per_game <dbl>, second_name <chr>, selected_by_percent <dbl>,
#> #   special <lgl>, squad_number <lgl>, status <chr>, team <int>,
#> #   team_code <int>, total_points <int>, transfers_in <int>,
…
