fplr quickstart • fplr
…
What is fplr?

fplr is an R package that houses tools for working with FPL data in R. This toolset mostly consists of functions to help with FPL managers’ (referred to herein as users), players’, teams’ and fixtures data, for current and previous seasons of the game.

N.B. The package mostly retrieves this data from endpoints across the FPL site (for example, the bootstrap-static endpoint). At time of writing, there is no formal developer support, and so any sudden game alterations that affect the data structure may cause functionality in this package to break. File any issues over at the Github repo issue tracker.

2. Players

Functions in the player data family primarily return information about players in the game, and are mostly for exploring data in the current season (note - when a new season of the game begins, old season data returned from these functions will be overwritten).

These functions follow the naming convention fpl_get_player_xxx. For example, fpl_get_player_all() returns data for all players in the current season, via a tidy tibble:

fpl_get_player_all()
# # A tibble: 420 x 53
#    chance_of_playi… chance_of_playi…   code cost_change_eve…
#               <int> <lgl>             <int>            <dbl>
#  1               NA NA                69140                0
#  2                0 NA                98745                0
#  3               NA NA               111457                0
#  4               NA NA               154043                0
#  5               NA NA                39476                0
#  6               NA NA                38411                0
#  7               NA NA                51507                0
#  8               NA NA               233963                0
#  9               NA NA                80254                0
# 10                0 NA               156074                0
# # … with 410 more rows, and 49 more variables:
# #   cost_change_event_fall <int>, cost_change_start <dbl>,
# #   cost_change_start_fall <int>, dreamteam_count <int>,
# #   element_type <int>, ep_next <dbl>, ep_this <dbl>, event_points <int>,
# #   first_name <chr>, form <dbl>, id <int>, in_dreamteam <lgl>,
# #   news <chr>, news_added <chr>, now_cost <dbl>, photo <chr>,
# #   points_per_game <dbl>, second_name <chr>, selected_by_percent <dbl>,
# #   special <lgl>, squad_number <lgl>, status <chr>, team <int>,
# #   team_code <int>, total_points <int>, transfers_in <int>,
…
5. Fixtures

These functions follow the naming convention fpl_get_fixtures_xxx.

Summary data for teams in the current FPL season is gleaned using fpl_get_fixtures():

fpl_get_fixtures()
# # A tibble: 380 x 15
#      code event finished finished_provis…    id kickoff_time        minutes
#     <int> <int> <lgl>    <lgl>            <int> <dttm>                <int>
#  1 1.06e6     1 FALSE    FALSE                1 2019-08-09 00:00:00       0
#  2 1.06e6     1 FALSE    FALSE                8 2019-08-10 00:00:00       0
#  3 1.06e6     1 FALSE    FALSE                2 2019-08-10 00:00:00       0
#  4 1.06e6     1 FALSE    FALSE                3 2019-08-10 00:00:00       0
#  5 1.06e6     1 FALSE    FALSE                4 2019-08-10 00:00:00       0
#  6 1.06e6     1 FALSE    FALSE                7 2019-08-10 00:00:00       0
#  7 1.06e6     1 FALSE    FALSE                6 2019-08-10 00:00:00       0
#  8 1.06e6     1 FALSE    FALSE                5 2019-08-11 00:00:00       0
#  9 1.06e6     1 FALSE    FALSE               10 2019-08-11 00:00:00       0
# 10 1.06e6     1 FALSE    FALSE                9 2019-08-11 00:00:00       0
# # … with 370 more rows, and 8 more variables:
# #   provisional_start_time <lgl>, started <lgl>, team_a <int>,
# #   team_a_score <lgl>, team_h <int>, team_h_score <lgl>,
# #   team_h_difficulty <int>, team_a_difficulty <int>
…
