Introduction to fplr • fplr
…
fplr is an R package that provides a set of tools for working with FPL data in R. It contains functions for interfacing with FPL user (referred to herein as “users”) and player (referred to herein as “players”) data, in both current and previous seasons of the game.

N.B. The package retrieves this data from the FPL site (specifically bootstrap-static JSON). At time of writing, there is no formal developer support, and so any sudden game alterations that affect the data structure may cause functionality in this package to break.

2. Players

Functions in the player data family primarily return information about players in the game, and are mostly for exploring data in the current season (note - when a new season of the game begins, data from these functions will be overwritten).

Current FPL season

fpl_get_players: Aggregate (season-level) data for players in the current FPL season

fpl_get_players()
# # A tibble: 608 x 60
#       id photo web_name team_code status   code first_name second_name
#    <int> <chr> <chr>        <int> <chr>   <int> <chr>      <chr>      
#  1     1 1133… Cech             3 Avail…  11334 Petr       Cech       
#  2     2 8020… Leno             3 Avail…  80201 Bernd      Leno       
#  3     3 5150… Kosciel…         3 Avail…  51507 Laurent    Koscielny  
#  4     4 9874… Bellerín         3 Injur…  98745 Héctor     Bellerín   
#  5     5 3841… Monreal          3 Avail…  38411 Nacho      Monreal    
#  6     6 1560… Holding          3 Injur… 156074 Rob        Holding    
#  7     7 6914… Mustafi          3 Avail…  69140 Shkodran   Mustafi    
#  8     8 1114… Kolasin…         3 Avail… 111457 Sead       Kolasinac  
#  9    10 2339… Mavropa…         3 Avail… 233963 Konstanti… Mavropanos 
# 10    11 2733… Lichtst…         3 Avail…  27335 Stephan    Lichtstein…
# # … with 598 more rows, and 52 more variables: squad_number <int>,
# #   news <chr>, now_cost <dbl>, news_added <chr>,
# #   chance_of_playing_this_round <int>,
# #   chance_of_playing_next_round <int>, value_form <dbl>,
# #   value_season <dbl>, cost_change_start <dbl>, cost_change_event <dbl>,
# #   cost_change_start_fall <int>, cost_change_event_fall <int>,
# #   in_dreamteam <lgl>, dreamteam_count <int>, selected_by_percent <dbl>,
# #   form <dbl>, transfers_out <int>, transfers_in <int>,
# #   transfers_out_event <int>, transfers_in_event <int>, loans_in <int>,
…
5. Fixtures

fpl_get_fixtures: Summary data for fixtures in the current FPL season

fpl_get_fixtures()
# # A tibble: 380 x 20
#       id kickoff_time_fo… started event_day deadline_time      
#    <int> <chr>            <lgl>       <int> <dttm>             
#  1   302 <NA>             FALSE          NA NA                 
#  2   265 <NA>             FALSE          NA NA                 
#  3   307 <NA>             FALSE          NA NA                 
#  4   308 <NA>             FALSE          NA NA                 
#  5   310 <NA>             FALSE          NA NA                 
#  6     6 10 Aug 20:00     TRUE            1 2018-08-10 18:00:00
#  7     7 11 Aug 12:30     TRUE            2 2018-08-10 18:00:00
#  8     2 11 Aug 15:00     TRUE            2 2018-08-10 18:00:00
#  9     3 11 Aug 15:00     TRUE            2 2018-08-10 18:00:00
# 10     4 11 Aug 15:00     TRUE            2 2018-08-10 18:00:00
# # … with 370 more rows, and 15 more variables:
# #   deadline_time_formatted <chr>, stats <list>, team_h_difficulty <int>,
# #   team_a_difficulty <int>, code <int>, kickoff_time <dttm>,
# #   team_h_score <int>, team_a_score <int>, finished <lgl>, minutes <int>,
# #   provisional_start_time <lgl>, finished_provisional <lgl>, event <int>,
# #   team_a <chr>, team_h <chr>
…
