Get data on fixtures — fpl_get_fixtures • fplr
…
    Retrieve data on fixtures for the current FPL season, obtained via the
fixtures endpoint.

fpl_get_fixtures()

    Value

    a tibble

    Examples

fpl_get_fixtures()
#> # A tibble: 380 x 15
#>      code event finished finished_provis…    id kickoff_time        minutes
#>     <int> <int> <lgl>    <lgl>            <int> <dttm>                <int>
#>  1 1.06e6     1 FALSE    FALSE                1 2019-08-09 00:00:00       0
#>  2 1.06e6     1 FALSE    FALSE                8 2019-08-10 00:00:00       0
#>  3 1.06e6     1 FALSE    FALSE                2 2019-08-10 00:00:00       0
#>  4 1.06e6     1 FALSE    FALSE                3 2019-08-10 00:00:00       0
#>  5 1.06e6     1 FALSE    FALSE                4 2019-08-10 00:00:00       0
#>  6 1.06e6     1 FALSE    FALSE                7 2019-08-10 00:00:00       0
#>  7 1.06e6     1 FALSE    FALSE                6 2019-08-10 00:00:00       0
#>  8 1.06e6     1 FALSE    FALSE                5 2019-08-11 00:00:00       0
#>  9 1.06e6     1 FALSE    FALSE               10 2019-08-11 00:00:00       0
#> 10 1.06e6     1 FALSE    FALSE                9 2019-08-11 00:00:00       0
#> # … with 370 more rows, and 8 more variables: provisional_start_time <lgl>,
#> #   started <lgl>, team_a <int>, team_a_score <lgl>, team_h <int>,
#> #   team_h_score <lgl>, team_h_difficulty <int>, team_a_difficulty <int>
…
