Get data on all players — fpl_get_player_all • fplr
…
    Retrieve player data for the current FPL season, obtained via the
elements endpoint.

fpl_get_player_all()

    Value

    a tibble

    Examples

fpl_get_player_all()
#> # A tibble: 624 x 58
#>       id photo web_name team_code status   code first_name second_name
#>    <int> <chr> <chr>        <int> <chr>   <int> <chr>      <chr>      
#>  1     1 1133… Cech             3 a       11334 Petr       Cech       
#>  2     2 8020… Leno             3 a       80201 Bernd      Leno       
#>  3     3 5150… Kosciel…         3 a       51507 Laurent    Koscielny  
#>  4     4 9874… Bellerín         3 i       98745 Héctor     Bellerín   
#>  5     5 3841… Monreal          3 a       38411 Nacho      Monreal    
#>  6     6 1560… Holding          3 i      156074 Rob        Holding    
#>  7     7 6914… Mustafi          3 a       69140 Shkodran   Mustafi    
#>  8     8 1114… Kolasin…         3 a      111457 Sead       Kolasinac  
#>  9    10 2339… Mavropa…         3 a      233963 Konstanti… Mavropanos 
#> 10    11 2733… Lichtst…         3 a       27335 Stephan    Lichtstein…
#> # … with 614 more rows, and 50 more variables: squad_number <int>, news <chr>,
#> #   now_cost <dbl>, news_added <chr>, chance_of_playing_this_round <int>,
#> #   chance_of_playing_next_round <int>, value_form <dbl>, value_season <dbl>,
#> #   cost_change_start <dbl>, cost_change_event <dbl>,
#> #   cost_change_start_fall <int>, cost_change_event_fall <int>,
#> #   in_dreamteam <lgl>, dreamteam_count <int>, selected_by_percent <dbl>,
#> #   form <dbl>, transfers_out <int>, transfers_in <int>,
#> #   transfers_out_event <int>, transfers_in_event <int>, loans_in <int>,
#> #   loans_out <int>, loaned_in <int>, loaned_out <int>, total_points <int>,
…
