Get history data on a user — fpl_get_user_history • fplr
…
fpl_get_user_history(user_id)

    Arguments

      user_id
      user ID (found in a user's team page URL on the main FPL site).

    Value

    a tibble

    Examples

fpl_get_user_history(user_id = 3808385)
#> # A tibble: 38 x 15
#>        id movement points total_points   rank rank_sort overall_rank targets
#>     <int> <chr>     <int>        <int>  <int>     <int>        <int> <lgl>  
#>  1 3.81e6 new          89           89 8.38e4     93903        83755 NA     
#>  2 8.36e6 up           88          177 3.13e5    323404        59210 NA     
#>  3 1.35e7 down         42          219 4.06e6   4085020       125227 NA     
#>  4 1.88e7 up           64          283 2.52e5    262169        45346 NA     
#>  5 2.44e7 up           75          358 3.07e5    312891        20025 NA     
#>  6 3.00e7 down         51          409 3.07e6   3105878        37672 NA     
#>  7 3.56e7 down         47          456 3.47e6   3505687        78286 NA     
#>  8 4.13e7 down         48          504 3.03e6   3045561       146361 NA     
#>  9 4.71e7 down         36          540 4.21e6   4265087       187042 NA     
#> 10 5.29e7 up           89          629 1.88e5    195824        80466 NA     
#> # … with 28 more rows, and 7 more variables: event_transfers <int>,
#> #   event_transfers_cost <int>, value <int>, points_on_bench <int>, bank <int>,
#> #   entry <int>, event <int>
…
