Get current season data on a player — fpl_get_player_current • fplr
…
      player_id
      player's ID (id field from fpl_get_player_all output).

      convert_prices
      Convert player price-related metrics to familiar denominations
(TRUE by default)

    Value

    a tibble

    Examples

fpl_get_player_current(player_id = 3)
#> # A tibble: 38 x 54
#>       id kickoff_time kickoff_time_fo… team_h_score team_a_score was_home round
#>    <int> <chr>        <chr>                   <int>        <int> <lgl>    <int>
#>  1     3 2018-08-12T… 12 Aug 16:00                0            2 TRUE         1
#>  2   528 2018-08-18T… 18 Aug 17:30                3            2 FALSE        2
#>  3  1055 2018-08-25T… 25 Aug 15:00                3            1 TRUE         3
#>  4  1586 2018-09-02T… 02 Sep 13:30                2            3 FALSE        4
#>  5  2123 2018-09-15T… 15 Sep 15:00                1            2 FALSE        5
#>  6  2660 2018-09-23T… 23 Sep 16:00                2            0 TRUE         6
#>  7  3198 2018-09-29T… 29 Sep 15:00                2            0 TRUE         7
#>  8  3737 2018-10-07T… 07 Oct 12:00                1            5 FALSE        8
#>  9  4279 2018-10-22T… 22 Oct 20:00                3            1 TRUE         9
#> 10  4825 2018-10-28T… 28 Oct 13:30                2            2 FALSE       10
#> # … with 28 more rows, and 47 more variables: total_points <int>, value <dbl>,
#> #   transfers_balance <int>, selected <int>, transfers_in <int>,
#> #   transfers_out <int>, loaned_in <int>, loaned_out <int>, minutes <int>,
#> #   goals_scored <int>, assists <int>, clean_sheets <int>,
#> #   goals_conceded <int>, own_goals <int>, penalties_saved <int>,
#> #   penalties_missed <int>, yellow_cards <int>, red_cards <int>, saves <int>,
#> #   bonus <int>, bps <int>, influence <dbl>, creativity <dbl>, threat <dbl>,
#> #   ict_index <dbl>, ea_index <int>, open_play_crosses <int>,
#> #   big_chances_created <int>, clearances_blocks_interceptions <int>,
…
